dump.vcd
$date
	Sat Sep 28 00:52:12 2019
$end
$version
	ModelSim Version 10.1c
$end
$timescale
	10ps
$end
$scope module test $end
$var parameter 72 ! INPUT_DATA $end
$var parameter 80 " EXPECT_DATA $end
$var parameter 32 # period $end
$var reg 1 $ clk $end
$var reg 1 % reset $end
$var reg 1 & nt $end
$var reg 3 ' xi [2:0] $end
$var reg 3 ( yi [2:0] $end
$var wire 1 ) xo [2] $end
$var wire 1 * xo [1] $end
$var wire 1 + xo [0] $end
$var wire 1 , yo [2] $end
$var wire 1 - yo [1] $end
$var wire 1 . yo [0] $end
$var wire 1 / po $end
$var wire 1 0 busy $end
$var integer 32 1 i $end
$var integer 32 2 j $end
$var integer 32 3 k $end
$var integer 32 4 l $end
$var integer 32 5 out_f $end
$var integer 32 6 err $end
$var integer 32 7 pattern_num $end
$var integer 32 8 total_num $end
$var integer 32 9 total_cycle_num $end
$var integer 32 : a $end
$var integer 32 ; b $end
$var integer 32 < c $end
$var integer 32 = d $end
$var reg 6 > data_tmp_expect [5:0] $end
$var reg 6 ? data_tmp_i1 [5:0] $end
$var reg 6 @ data_tmp_i2 [5:0] $end
$var reg 6 A data_tmp_i3 [5:0] $end
$scope module top $end
$var parameter 3 B idle $end
$var parameter 3 C read $end
$var parameter 3 D bottom $end
$var parameter 3 E cal $end
$var parameter 3 F out $end
$var parameter 3 G temp $end
$var wire 1 H clk $end
$var wire 1 I reset $end
$var wire 1 J nt $end
$var wire 1 K xi [2] $end
$var wire 1 L xi [1] $end
$var wire 1 M xi [0] $end
$var wire 1 N yi [2] $end
$var wire 1 O yi [1] $end
$var wire 1 P yi [0] $end
$var reg 1 Q busy $end
$var reg 1 R po $end
$var reg 3 S xo [2:0] $end
$var reg 3 T yo [2:0] $end
$var reg 4 U a [3:0] $end
$var reg 4 V b [3:0] $end
$var reg 4 W c [3:0] $end
$var reg 4 X d [3:0] $end
$var reg 3 Y cur_st [2:0] $end
$var reg 3 Z nxt_st [2:0] $end
$var reg 4 [ x [3:0] $end
$var reg 4 \ y [3:0] $end
$var reg 4 ] x1 [3:0] $end
$var reg 4 ^ x2 [3:0] $end
$var reg 4 _ x3 [3:0] $end
$var reg 4 ` y1 [3:0] $end
$var reg 4 a y2 [3:0] $end
$var reg 4 b y3 [3:0] $end
$var reg 1 c outside $end
$var reg 5 d judge [4:0] $end
$var reg 5 e e [4:0] $end
$var reg 3 f counter [2:0] $end
$var reg 1 g change $end
$upscope $end
$upscope $end
$enddefinitions $end
#0
$dumpvars
1$
0%
0&
bz '
bz (
bx >
bx ?
bx @
bx A
0Q
0R
bx S
bx T
bx U
bx V
bx W
bx X
b11 Y
b100 Z
bx [
bx \
bx ]
bx ^
bx _
bx `
bx a
bx b
0c
bx d
bx e
b0 f
0g
b1111101000 #
b0 B
b1 C
b10 D
b11 E
b100 F
b101 G
b11010010110111001110000011101010111010000101110011001000110000101110100 !
b1100101011110000111000001100101011000110111010000101110011001000110000101110100 "
b0 1
b0 2
b0 3
b0 4
b10 5
b0 6
b1 7
b0 8
bx 9
bx :
bx ;
bx <
bx =
x+
x*
x)
x.
x-
x,
0/
00
zP
zO
zN
zM
zL
zK
0J
0I
1H
$end
#5000
0$
0H
1%
1I
b0 Y
1Q
10
b0 Z
#10000
1$
1H
b0 9
0Q
00
#14999
0%
b11 3
0I
#15000
0$
0H
1&
1J
b1 Z
#18000
b1001 ?
b1 '
b1 (
1P
0O
0N
1M
0L
0K
#20000
1$
1H
b1 9
b1 Y
b1 ]
b1 `
b1 f
#22000
bz '
bz (
zP
zO
zN
zM
zL
zK
#25000
0$
0H
0&
0J
#28000
b100001 @
b100 '
b1 (
1P
0O
0N
0M
0L
1K
#30000
1$
1H
b10 9
1Q
b100 ^
b1 a
b10 f
b1 [
b1 \
10
b0xxxx d
#32000
bz '
bz (
zP
zO
zN
zM
zL
zK
#35000
0$
0H
#38000
b1111 A
b1 '
b111 (
1P
1O
1N
1M
0L
0K
#40000
1$
1H
b11 9
b1 _
b111 b
b11 f
b10 Z
b1101 U
b110 V
b10010 d
#42000
bz '
bz (
b11 1
zP
zO
zN
zM
zL
zK
#45000
0$
0H
b0 3
#50000
1$
1H
b100 9
b10 Y
b0 f
#55000
0$
0H
#60000
1$
1H
b101 9
1R
b1 S
b1 T
b10 [
1/
1.
0-
0,
1+
0*
0)
#65000
0$
0H
#70000
1$
1H
b1001 >
b1 4
b110 9
b10 S
b11 [
0+
1*
#75000
0$
0H
#80000
1$
1H
b10001 >
b10 4
b111 9
b11 S
b100 [
1+
#85000
0$
0H
#90000
1$
1H
b11001 >
b11 4
b1000 9
b100 S
b101 [
1g
0+
0*
1)
b101 Z
#95000
0$
0H
#100000
1$
1H
b100001 >
b100 4
b1001 9
b101 Y
0R
b101 S
b1 [
0g
0/
1+
b11 Z
#105000
0$
0H
#110000
1$
1H
b1010 9
b11 Y
b0 [
b10 \
b100 Z
1c
b101 Z
#115000
0$
0H
#120000
1$
1H
b1011 9
b101 Y
b1 [
b11 Z
0c
#125000
0$
0H
#130000
1$
1H
b1100 9
b11 Y
b0 [
b11 \
b100 Z
1c
b101 Z
#135000
0$
0H
#140000
1$
1H
b1101 9
b101 Y
b1 [
b11 Z
0c
#145000
0$
0H
#150000
1$
1H
b1110 9
b11 Y
b0 [
b100 \
b100 Z
#155000
0$
0H
#160000
1$
1H
b1111 9
b100 Y
b1 [
b11 Z
#165000
0$
0H
#170000
1$
1H
b10000 9
b11 Y
1R
b1 S
b100 T
1/
0.
1,
0)
b100 Z
#175000
0$
0H
#180000
1$
1H
b1010 >
b1 6
b101 4
b10001 9
b100 Y
0R
b10 [
0/
b11 Z
#185000
0$
0H
#190000
1$
1H
b10010 9
b11 Y
1R
b10 S
1/
0+
1*
b100 Z
#195000
0$
0H
#200000
1$
1H
b10010 >
b10 6
b110 4
b10011 9
b100 Y
0R
b11 [
0/
b11 Z
#205000
0$
0H
#210000
1$
1H
b10100 9
b11 Y
1R
b11 S
1/
1+
b100 Z
#215000
0$
0H
#220000
1$
1H
b11010 >
b11 6
b111 4
b10101 9
b100 Y
0R
b100 [
0/
b11 Z
#225000
0$
0H
#230000
1$
1H
b10110 9
b11 Y
1R
b100 S
1/
0+
0*
1)
b100 Z
#235000
0$
0H
#240000
1$
1H
b1011 >
b100 6
b1000 4
b10111 9
b100 Y
0R
b101 [
0/
b11 Z
#245000
0$
0H
#250000
1$
1H
b11000 9
b11 Y
1R
b101 S
1/
1+
b100 Z
#255000
0$
0H
#260000
1$
1H
b10011 >
b101 6
b1001 4
b11001 9
b100 Y
0R
b110 [
0/
b11 Z
#265000
0$
0H
#270000
1$
1H
b11010 9
b11 Y
1R
b110 S
1/
0+
1*
b100 Z
#275000
0$
0H
#280000
1$
1H
b11011 >
b110 6
b1010 4
b11011 9
b100 Y
0R
b111 [
0/
b11 Z
#285000
0$
0H
#290000
1$
1H
b11100 9
b11 Y
1R
b111 S
1/
1+
b100 Z
#295000
0$
0H
#300000
1$
1H
b1100 >
b111 6
b1011 4
b11101 9
b100 Y
0R
b1000 [
0/
b11 Z
#305000
0$
0H
#310000
1$
1H
b11110 9
b11 Y
1R
b0 S
1/
0+
0*
0)
b100 Z
#315000
0$
0H
#320000
1$
1H
b10100 >
b1000 6
b1100 4
b11111 9
b100 Y
0R
b1001 [
0/
b11 Z
#325000
0$
0H
#330000
1$
1H
b100000 9
b11 Y
1R
b1 S
1/
1+
b100 Z
#335000
0$
0H
#340000
1$
1H
b1101 >
b1001 6
b1101 4
b100001 9
b100 Y
0R
b1010 [
0/
b11 Z
#345000
0$
0H
#350000
1$
1H
b100010 9
b11 Y
1R
b10 S
1/
0+
1*
b100 Z
#355000
0$
0H
#360000
1$
1H
b10101 >
b1010 6
b1110 4
b100011 9
b100 Y
0R
b1011 [
0/
b11 Z
#365000
0$
0H
#370000
1$
1H
b100100 9
b11 Y
1R
b11 S
1/
1+
b100 Z
#375000
0$
0H
#380000
1$
1H
b1110 >
b1011 6
b1111 4
b100101 9
b100 Y
0R
b1100 [
0/
b11 Z
#385000
0$
0H
#390000
1$
1H
b100110 9
b11 Y
1R
b100 S
1/
0+
0*
1)
b100 Z
#395000
0$
0H
#400000
1$
1H
b1111 >
b1100 6
b10000 4
b100111 9
b100 Y
0R
b1101 [
0/
b11 Z
#405000
0$
0H
#410000
1$
1H
b101000 9
b11 Y
1R
b101 S
1/
1+
b100 Z
#415000
0$
0H
#420000
1$
1H
b1001 >
b1101 6
b10001 4
b101001 9
b100 Y
0R
b1110 [
0/
b11 Z
#425000
0$
0H
#430000
1$
1H
b101010 9
b11 Y
1R
b110 S
1/
0+
1*
b100 Z
#435000
0$
0H
#440000
1$
1H
b10001 >
b1110 6
b10010 4
b101011 9
b100 Y
0R
b1111 [
0/
b11 Z
#445000
0$
0H
#450000
1$
1H
b101100 9
b11 Y
1R
b111 S
1/
1+
b100 Z
#455000
0$
0H
#460000
1$
1H
b11001 >
b1111 6
b10011 4
b101101 9
b100 Y
0R
b0 [
0/
b11 Z
#465000
0$
0H
#470000
1$
1H
b101110 9
b11 Y
1R
b0 S
1/
0+
0*
0)
b100 Z
#475000
0$
0H
#480000
1$
1H
b100001 >
b10000 6
b10100 4
b101111 9
b100 Y
0R
b1 [
0/
b11 Z
#485000
0$
0H
#490000
1$
1H
b110000 9
b11 Y
1R
b1 S
1/
1+
b100 Z
#495000
0$
0H
#500000
1$
1H
b101001 >
b10001 6
b10101 4
b110001 9
b100 Y
0R
b10 [
0/
b11 Z
#505000
0$
0H
#510000
1$
1H
b110010 9
b11 Y
1R
b10 S
1/
0+
1*
b100 Z
#515000
0$
0H
#520000
1$
1H
b110001 >
b10010 6
b10110 4
b110011 9
b100 Y
0R
b11 [
0/
b11 Z
#525000
0$
0H
#530000
1$
1H
b110100 9
b11 Y
1R
b11 S
1/
1+
b100 Z
#535000
0$
0H
#540000
1$
1H
b111001 >
b10011 6
b10111 4
b110101 9
b100 Y
0R
b100 [
0/
b11 Z
#545000
0$
0H
#550000
1$
1H
b110110 9
b11 Y
1R
b100 S
1/
0+
0*
1)
b100 Z
#555000
0$
0H
#560000
1$
1H
b1010 >
b10100 6
b11000 4
b110111 9
b100 Y
0R
b101 [
0/
b11 Z
#565000
0$
0H
#570000
1$
1H
b111000 9
b11 Y
1R
b101 S
1/
1+
b100 Z
#575000
0$
0H
#580000
1$
1H
b10010 >
b10101 6
b11001 4
b111001 9
b100 Y
0R
b110 [
0/
b11 Z
#585000
0$
0H
#590000
1$
1H
b111010 9
b11 Y
1R
b110 S
1/
0+
1*
b100 Z
#595000
0$
0H
#600000
1$
1H
b11010 >
b10110 6
b11010 4
b111011 9
b100 Y
0R
b111 [
0/
b11 Z
#605000
0$
0H
#610000
1$
1H
b111100 9
b11 Y
1R
b111 S
1/
1+
b100 Z
#615000
0$
0H
#620000
1$
1H
b100010 >
b10111 6
b11011 4
b111101 9
b100 Y
0R
b1000 [
0/
b11 Z
#625000
0$
0H
#630000
1$
1H
b111110 9
b11 Y
1R
b0 S
1/
0+
0*
0)
b100 Z
#635000
0$
0H
#640000
1$
1H
b1011 >
b11000 6
b11100 4
b1111001000110000 8
